{
  "kind": "collectionType",
  "collectionName": "tasks",
  "info": {
    "name": "tasks",
    "description": ""
  },
  "options": {
    "increments": true,
    "timestamps": true,
    "draftAndPublish": false
  },
  "attributes": {
    "type": {
      "type": "enumeration",
      "enum": [
        "add_student",
        "enroll_student"
      ]
    },
    "data": {
      "type": "json"
    },
    "isDone": {
      "type": "boolean"
    },
    "creationTime": {
      "type": "datetime"
    },
    "doneBy": {
      "model": "admins"
    },
    "completionTime": {
      "type": "datetime"
    }
  }
}
