{
  "collectionName": "components_verification_info_infos",
  "info": {
    "name": "info",
    "icon": "address-card",
    "description": ""
  },
  "options": {},
  "attributes": {
    "otp": {
      "type": "integer",
      "min": 6
    },
    "message": {
      "type": "string"
    },
    "isVerified": {
      "type": "boolean"
    },
    "verificationTime": {
      "type": "datetime"
    },
    "phoneNumber": {
      "type": "string"
    },
    "generatedTime": {
      "type": "datetime"
    }
  }
}
