{
  "collectionName": "components_list_batch_ids",
  "info": {
    "name": "batchIds",
    "icon": "list-ul"
  },
  "options": {},
  "attributes": {
    "batchId": {
      "type": "string"
    }
  }
}
