<?xml version="1.0" encoding="UTF-8" standalone="no"?>
<svg
   xmlns:dc="http://purl.org/dc/elements/1.1/"
   xmlns:cc="http://creativecommons.org/ns#"
   xmlns:rdf="http://www.w3.org/1999/02/22-rdf-syntax-ns#"
   xmlns:svg="http://www.w3.org/2000/svg"
   xmlns="http://www.w3.org/2000/svg"
   xmlns:sodipodi="http://sodipodi.sourceforge.net/DTD/sodipodi-0.dtd"
   xmlns:inkscape="http://www.inkscape.org/namespaces/inkscape"
   width="2500px"
   height="1713px"
   viewBox="0 0 2500 1713"
   version="1.1"
   id="svg9"
   sodipodi:docname="14.svg"
   inkscape:version="0.92.5 (2060ec1f9f, 2020-04-08)">
  <metadata
     id="metadata15">
    <rdf:RDF>
      <cc:Work
         rdf:about="">
        <dc:format>image/svg+xml</dc:format>
        <dc:type
           rdf:resource="http://purl.org/dc/dcmitype/StillImage" />
      </cc:Work>
    </rdf:RDF>
  </metadata>
  <defs
     id="defs13" />
  <sodipodi:namedview
     pagecolor="#ffffff"
     bordercolor="#666666"
     borderopacity="1"
     objecttolerance="10"
     gridtolerance="10"
     guidetolerance="10"
     inkscape:pageopacity="0"
     inkscape:pageshadow="2"
     inkscape:window-width="1920"
     inkscape:window-height="1015"
     id="namedview11"
     showgrid="false"
     inkscape:zoom="0.1116"
     inkscape:cx="1250"
     inkscape:cy="856.5"
     inkscape:window-x="0"
     inkscape:window-y="0"
     inkscape:window-maximized="1"
     inkscape:current-layer="Pottery" />
  <!-- Generator: Sketch 56.1 (81669) - https://sketch.com -->
  <title
     id="title2">Pottery</title>
  <desc
     id="desc4">Created with Sketch.</desc>
  <g
     id="Pottery"
     stroke="none"
     stroke-width="1"
     fill="none"
     fill-rule="evenodd">
    <path
       d="M1266.02569,790.719605 C1270.80923,788.547283 1274.59231,786.598671 1277.38536,784.866772 C1291.62444,776.037496 1300.56252,768.066969 1307.29673,758.474582 C1308.56606,756.666517 1308.12933,754.171796 1306.32126,752.902467 C1304.5132,751.633138 1302.01848,752.069869 1300.74915,753.877934 C1296.05008,760.571405 1290.10388,766.437126 1281.4394,772.598784 C1281.43767,772.598871 1281.43594,772.598959 1281.43421,772.599048 C1252.65479,774.081804 1228.63467,777.54793 1209.49906,782.776767 L1053.38032,760.839745 C1053.92752,760.787815 1054.47278,760.621652 1054.98128,760.33172 L1195.98128,679.936829 C1196.77299,679.485412 1197.35189,678.804481 1197.682,678.02549 C1224.10938,658.743104 1241.28007,641.744744 1249.19407,627.030409 C1257.59991,611.401596 1263.33384,587.555801 1266.39586,555.493023 C1263.61106,550.524813 1260.18421,542.68612 1256.11528,531.976945 C1254.12255,526.73218 1260.71743,511.947944 1259.82477,499.589844 C1259.18326,490.708659 1251.35754,484.20714 1249.19407,478.136719 C1248.00635,474.804113 1250.36724,466.60748 1248.59259,462.003384 L1333.62171,417.799545 L1315.64515,797.691883 L1266.02569,790.719605 Z M1250.61231,788.553795 L1232.05812,785.946653 C1242.46687,784.088584 1253.99962,782.62734 1266.63929,781.594723 C1262.45078,783.638741 1257.10423,785.96126 1250.61231,788.553795 Z M1187.92723,675.320013 L1051.01872,753.38203 C1049.09962,754.476258 1048.43093,756.919047 1049.52515,758.83815 C1049.99653,759.664874 1050.71817,760.25955 1051.5404,760.581208 L1045.97932,759.799793 L858.551397,856.5 L633.644098,549.137048 C633.530837,548.982263 633.419229,548.826277 633.309292,548.669114 C624.762031,536.450163 627.738523,519.615822 639.957474,511.06856 L779.939966,413.149601 L893.410094,399.737837 L859,526.533891 L938.038086,631.494899 L1078.83592,581.700923 L1079.00892,580.688367 C1078.97029,581.264259 1079.05628,581.857583 1079.28352,582.429761 C1080.09892,584.482907 1082.42435,585.486292 1084.47749,584.670885 L1119.00908,570.956662 L1130.01484,588.796514 C1131.17473,590.676656 1133.63917,591.260531 1135.51931,590.100634 C1137.39946,588.940737 1137.98333,586.476299 1136.82343,584.596157 L1124.05576,563.900303 C1123.0367,562.24846 1120.97887,561.566538 1119.17503,562.282933 L1081.52464,577.235787 C1080.31508,577.716165 1079.46986,578.720624 1079.14622,579.884742 L1100.40528,455.453745 L1147.34817,482.797651 C1145.24569,490.125341 1145.66006,501.991063 1149.56675,517.704417 C1150.08183,519.776175 1152.72833,528.009469 1157.50625,542.404297 L1153.34461,628.964834 L1187.92723,675.320013 Z M1078.49084,442.688735 L1078.71576,442.819753 L1054.15448,552.285508 L896.400182,526.533891 L926.210136,416.487579 C926.33034,413.040876 926.913289,409.553 928.000372,406.103428 L940.95374,364.999322 L1078.96351,384.242741 L1078.96351,442.628438 L1078.49084,442.688735 Z"
       id="Red"
       fill="#F15D23"
       style="fill:#f9b81e;fill-opacity:1" />
    <path
       d="m 1160.2086,468.92253 c 9.127,-49.38285 47.9601,-80.51927 116.4992,-93.40928 -18.3298,-11.4483 -47.7903,-34.15705 -88.3815,-68.12626 -38.6224,-47.98519 -57.9336,-83.96726 -57.9336,-107.9462 0,-35.96842 29.5931,-63.4101 76.7346,-59.36925 6.5976,0.56553 12.7641,1.61619 18.4907,3.09515 -5.0489,-8.83371 -11.2005,-17.50519 -18.4547,-26.01444 -2.1498,-2.52171 -1.8483,-6.30872 0.6734,-8.45852 0.8962,-0.76406 1.9975,-1.24746 3.1665,-1.38996 16.403,-1.99942 47.4634,-2.99914 93.1814,-2.99914 28.6625,0 55.5861,-3.77226 85.9445,-4.636185 64.1058,-1.824289 120.7878,-0.328835 120.7878,9.708985 0,3.7629 -9.9829,15.50699 -21.0912,30.55039 8.7623,-2.06632 18.5733,-2.77501 29.2914,-1.85628 47.1415,4.04085 72.2655,32.84889 72.2655,65.69778 0,7.24552 -6.9604,19.99538 -17.8744,35.4485 0.428,0.64487 0.8221,1.32231 1.1785,2.03111 l 44.1415,87.76735 c 19.0063,-10.61836 33.4328,-15.88679 43.6053,-15.71853 4.1094,0.068 8.2936,1.02664 12.5362,2.84997 3.2375,1.39133 6.0832,3.55765 8.2861,6.30805 5.0866,6.35052 5.9829,14.70394 3.0581,21.71934 7.1635,-0.73502 12.7905,-0.43556 16.9654,0.96342 4.1173,1.37966 7.6522,4.10157 10.0383,7.72951 5.8838,8.94608 3.4013,20.96805 -5.5823,26.87617 l -126.9727,81.48764 c 11.5612,51.07618 -8.6026,75.75571 -38.272,150.44441 -33.0505,83.20021 -77.7989,84.99123 -104.681,118.48437 -4.9464,6.16281 5.6848,20.25263 31.8936,42.26946 0.1745,0.47104 0.4413,0.91686 0.8014,1.31018 7.4962,8.1863 13.2484,13.97599 17.3189,17.41477 2.3872,2.01672 5.6174,4.31201 9.7054,6.9024 -0.1855,0.10398 -0.3756,0.21088 -0.5706,0.32081 -0.4707,0.26538 -2.1866,1.23732 -2.4745,1.39994 -1.0267,0.58011 -1.8652,1.04976 -2.704,1.51292 -2.1493,1.18684 -4.1089,2.22312 -6.0875,3.20657 -4.4466,2.21012 -8.7596,4.03284 -13.1694,5.49054 -16.2138,5.35975 -38.0601,9.28719 -54.4463,11.01777 -6.5929,0.69628 -12.728,0.93445 -19.831,0.84624 -3.6966,-0.0459 -5.6117,-0.10827 -14.0047,-0.42253 -8.4282,-0.31557 -13.5369,-0.44583 -19.836,-0.44583 -20.4287,0 -36.471,-2.01164 -61.2506,-6.75557 -1.2415,-0.23767 -8.4653,-1.63311 -10.5204,-2.0242 -3.9916,-0.75963 -7.2118,-1.3478 -10.2977,-1.87274 -2.8942,-0.49234 -5.9958,-0.60292 -10.0325,-0.46932 -1.0843,0.0359 -2.0174,0.0785 -3.8113,0.16862 -6.1123,0.3072 -8.4567,0.30403 -10.6432,-0.15811 -9.3616,-1.97868 -15.5251,-5.65996 -17.7092,-8.90424 18.2028,-6.73408 30.5786,-12.12783 37.2707,-16.27746 14.2391,-8.82927 23.1772,-16.7998 29.9114,-26.39219 0.4455,-0.63458 0.6808,-1.35376 0.7205,-2.07485 7.1144,-7.73391 10.6153,-14.78023 10.5026,-21.13893 -0.2502,-14.12015 -62.6159,-47.89734 -100.6075,-72.94593 15.1874,-12.89578 25.6177,-24.61779 31.291,-35.16605 5.4098,-10.05837 9.713,-23.52018 12.9094,-40.38541 -25.9884,23.07151 -40.8645,35.24224 -45.8981,37.37888 -5.0928,2.16175 -10.5364,3.13543 -15.8932,2.24426 -7.0706,-1.17629 -13.1591,-5.50732 -17.6836,-13.26956 -5.4402,-9.33311 -6.6092,-18.70455 -3.4454,-27.80429 -9.8677,-2.40545 -17.6028,-8.30605 -22.9978,-17.56175 -5.946,-10.20095 -6.8795,-20.05366 -2.6154,-29.13505 l -8.2044,-17.42192 c -7.1593,-15.20266 -4.0534,-33.25908 7.7742,-45.19579 2.3654,-2.38728 4.7102,-4.6872 7.0342,-6.89974 z m 325.9885,309.74064 c 50.751,6.78268 92.222,17.26404 93.2881,35.10192 0.038,0.22267 0.059,0.45171 0.059,0.68553 v 22.69266 l 132.263,23.48721 101.8277,402.08191 c 0.036,0.1427 0.069,0.286 0.1,0.4299 l 14.9522,24.8865 132.8834,-12.4807 c 20.7156,-1.9456 40.9246,7.1641 53.1854,23.9747 l 8.0653,11.0582 c 1.6556,2.27 0.5162,5.4939 -2.1977,6.2211 l -96.8734,25.9257 32.7177,46.8474 -133.0902,40.9364 -168.6003,29.5485 c -2.176,0.3813 -3.6308,2.4544 -3.2494,4.6304 0.3813,2.176 2.4545,3.6308 4.6304,3.2495 l 141.468,-24.7934 158.8415,-2.5209 V 1491 H 1664.577 c -14.0357,38.8421 -44.1938,56.8829 -83.2529,56.8413 -26.916,-0.029 -57.1575,-9.5238 -73.6198,-20.9049 -31.2137,10.3579 -67.0321,15.618 -106.1446,16.468 5.5083,5.6397 9.9147,12.4114 12.8412,20.0058 l 4.8869,12.6821 c 0.8473,2.1989 -0.3802,4.65 -2.6484,5.2886 l -133.0796,37.4694 c -0.6906,0.1944 -1.4208,0.1996 -2.1141,0.015 l -292.92039,-78.0612 c -1.84909,-0.4928 -3.09016,-2.2262 -2.96084,-4.1354 l 0.0313,-0.4619 -182.23089,-10.4844 c -12.60214,-0.7251 -23.16096,-9.7927 -25.78163,-22.1407 L 673.31209,1012.2811 c -0.1549,-0.7299 -0.10305,-1.4382 0.10761,-2.0774 -3.9607,-4.5459 -6.01094,-10.66435 -5.27009,-17.01067 l 19.51243,-167.14718 66.29256,-113.18898 45.29589,62.10901 59.46254,81.53412 189.88217,-99.64313 171.0319,23.24883 c -17.5132,3.90014 -31.5721,9.07874 -42.1017,15.40371 -19.4999,11.71324 -26.5275,27.46548 -20.3466,43.73315 0.1774,0.46689 0.4328,0.88127 0.7456,1.23397 -0.079,0.33778 -0.1572,0.6773 -0.2342,1.01856 l 0.2401,25.71187 175.853,71.34242 -30.6059,476.22072 h -90.7408 l 25.5919,89.4335 131.1852,22.2521 c 8.5318,1.4472 16.4841,4.7189 23.4022,9.4433 l 0.096,-0.3849 c 39.7702,-0.1998 76.1687,-4.8583 107.7605,-14.6599 -11.5883,-12.2167 -22.4469,-37.38 -28.6823,-66.1909 -4.492,-20.7552 -6.2216,-41.4352 -4.8614,-60.0458 -6.0367,-8.8806 -11.0791,-19.6091 -14.57,-31.2353 -7.0934,-23.6241 -4.0402,-63.4567 9.0299,-119.7986 l -17.2014,1.9177 c -9.3311,1.0402 -17.7386,-5.6808 -18.7789,-15.0118 -0.022,-0.1934 -0.04,-0.3871 -0.055,-0.581 l -14.5342,-189.1379 c -0.71,-9.2397 6.111,-17.3459 15.3362,-18.2257 l 96.3887,-9.1921 c 9.3464,-0.8914 17.6458,5.9629 18.5371,15.3093 0.088,0.9234 0.1004,1.8524 0.037,2.7779 l -13.0851,190.6633 c -0.5627,8.1985 -6.9093,14.8208 -15.0766,15.7314 l -43.1294,4.8082 c -13.2979,56.49 -16.5216,96.0742 -9.8064,118.4387 2.2099,7.36 5.0791,14.3107 8.4189,20.5629 1.1435,-7.0064 2.7944,-13.6049 4.9737,-19.6677 9.3811,-26.0977 30.2799,-29.588 47.8251,-13.4324 16.4285,15.1275 21.8771,39.8273 8.8108,56.1555 -13.2098,16.5073 -29.8567,18.855 -45.5834,8.2004 -3.4522,-2.3389 -6.7911,-5.2683 -9.9586,-8.6893 -0.2714,15.3819 1.481,32.0302 5.1018,48.7601 6.4361,29.7382 18.0164,55.2951 29.0597,64.6563 0.147,0.1246 0.2962,0.2492 0.4475,0.3737 4.747,-1.6642 9.3759,-3.453 13.8813,-5.3688 33.4316,-14.2164 48.8568,-26.027 48.5385,-34.0226 -0.01,-0.1391 -0,-0.2768 0,-0.4127 V 829.26876 c -7.9032,7.83902 -22.0114,16.74083 -43.7483,26.87276 -132.3851,61.707 -345.0203,-6.00092 -355.8674,-13.4946 -2.7982,-1.93313 -5.1621,-3.84946 -7.1149,-5.74627 -0.04,-0.16747 -0.091,-0.33428 -0.1537,-0.49952 -4.6918,-12.34832 0.5881,-24.18292 16.9876,-34.03385 17.409,-10.45729 45.9176,-17.75396 85.0198,-20.94848 -7.3667,3.59503 -18.3157,8.05156 -32.7781,13.32344 -1.5792,0.57566 -2.6301,2.07722 -2.6301,3.7581 0,8.35211 9.8189,16.00361 24.9385,19.19929 3.1432,0.66434 5.7952,0.66793 12.699,0.32094 1.7499,-0.0879 2.6495,-0.12898 3.6744,-0.1629 3.545,-0.11734 6.1677,-0.0238 8.4263,0.36039 3.027,0.51492 6.1991,1.09431 10.1437,1.845 2.0418,0.38855 9.2596,1.78284 10.5118,2.02255 25.233,4.83073 41.721,6.89826 62.7548,6.89826 6.1764,0 11.2004,0.1281 19.5367,0.44023 8.4712,0.31718 10.4133,0.38043 14.2047,0.42752 7.3995,0.0919 13.8431,-0.15826 20.7705,-0.88988 16.9058,-1.78545 39.252,-5.80276 56.117,-11.37777 4.7967,-1.58561 9.4527,-3.55327 14.2192,-5.9224 3.2913,-1.63591 16.3456,-8.9957 17.5368,-9.24812 3.5749,-0.7575 4.3458,-5.5171 1.1929,-7.36437 -6.8767,-4.02901 -11.8911,-7.38176 -14.9964,-10.00518 -1.835,-1.55016 -4.1004,-3.67886 -6.7892,-6.38073 z m 31.1181,744.86653 c 15.8124,8.9947 41.2621,16.2873 64.0174,16.3116 34.9566,0.037 61.5078,-15.2987 74.6954,-48.8413 h -80.5609 v -1.3887 c -7.0501,9.4243 -23.3185,19.3184 -49.3384,30.383 -2.8908,1.2293 -5.829,2.4075 -8.8134,3.5354 z m -362.272,-108.7596 h -153.2039 l -5.86693,86.6189 c -0.61615,10.1472 -1.26822,20.5877 -1.9562,31.3217 -0.0257,0.4004 -0.10943,0.7833 -0.24259,1.1411 l -0.005,0.07 288.67787,76.9307 127.7969,-35.9821 -3.3077,-8.5838 c -6.4715,-16.7942 -21.3157,-28.9339 -39.0601,-31.9438 l -133.6688,-22.6733 c -0.602,-0.1021 -1.1595,-0.3376 -1.6396,-0.677 -0.1643,9e-4 -0.3305,-0.01 -0.4978,-0.028 -14.4227,-1.7149 -27.3484,-1.7149 -38.7737,-0.015 -11.5378,1.7161 -28.7432,6.2293 -51.5328,13.5364 -2.1036,0.6745 -4.3558,-0.4841 -5.0303,-2.5878 -0.6744,-2.1036 0.4841,-4.3557 2.5878,-5.0302 23.1684,-7.4285 40.74,-12.0379 52.7984,-13.8314 11.1509,-1.6586 23.5272,-1.7975 37.1315,-0.4289 l -25.135,-87.8369 h -41.0719 z m 655.5105,-141.3878 c -1.8079,1.7218 -4.2088,2.841 -6.8956,3.0091 l -223.4503,13.9838 0.3275,135.9235 432.3843,-115.7165 -4.6279,-6.3452 c -10.5983,-14.5313 -28.0671,-22.4058 -45.9739,-20.7239 l -135.3896,12.7161 c -1.5319,0.1439 -3.0104,-0.6036 -3.8028,-1.9225 z m -1124.97088,-255.9878 -3.15531,-0.6974 102.98142,485.2235 c 1.87191,8.82 9.41392,15.2969 18.41546,15.8148 l 182.31201,10.4891 1.85225,-27.3465 c 1.91555,-31.548 3.48323,-60.2511 4.70311,-86.1079 h -13.9104 l 4.16946,-307.033 z m 795.35948,347.2884 c -2.9547,8.22 -4.871,17.5856 -5.8002,27.7052 4.2563,5.8322 8.945,10.5921 13.8115,13.889 12.3014,8.3341 24.2692,6.6463 34.8499,-6.5757 10.0854,-12.603 5.6478,-32.7201 -7.9836,-45.2719 -6.1414,-5.6551 -12.9617,-8.3382 -18.7995,-7.3633 -6.5361,1.0916 -12.1624,6.7233 -16.0781,17.6167 z m -3.9384,-288.9106 c -11.4337,-0.9815 -18.6112,5.6837 -18.6112,14.4199 0,8.7362 9.3011,16.695 18.6112,17.4941 9.3101,0.7992 17.5272,-7.9785 17.5272,-15.957 0,-7.9785 -6.0936,-14.9756 -17.5272,-15.957 z m 4.3457,74.9844 c -11.4337,-0.9815 -18.9569,7.1794 -18.9569,15.9156 0,8.7362 9.6468,15.1992 18.9569,15.9984 9.3101,0.7992 17.5272,-7.9785 17.5272,-15.957 0,-7.9785 -6.0935,-14.9756 -17.5272,-15.957 z m 86.9635,-904.37554 c -5.8358,7.85591 -12.4943,16.24793 -19.6329,24.85689 2.4764,11.77753 6.6153,27.39698 12.4221,46.69768 0.471,1.56555 -0.058,3.26016 -1.3363,4.27957 l -46.9886,37.47704 -4.6815,24.08451 c 11.4608,3.62006 21.557,8.0926 30.2885,13.41763 17.0356,-4.35096 36.6366,-1.53694 58.6047,8.39481 2.013,0.91006 2.9071,3.27966 1.9971,5.29264 -0.9101,2.01297 -3.2797,2.90706 -5.2927,1.997 -17.1873,-7.77031 -32.4775,-10.85398 -45.9918,-9.27991 13.4336,10.41493 22.7134,23.42473 27.8395,39.02942 1.1834,3.60247 2.235,7.06991 3.1601,10.42056 l 124.6755,-80.01315 c 5.2547,-3.4559 6.7128,-10.51719 3.2568,-15.77181 -1.4015,-2.13093 -3.4777,-3.72969 -5.8961,-4.54006 -4.0531,-1.35815 -11.0664,-1.26643 -20.8403,0.42932 -0.2469,0.24322 -0.5297,0.45814 -0.8461,0.63643 l -53.7689,30.29706 c -1.9246,1.08447 -4.364,0.40339 -5.4484,-1.52125 -1.0845,-1.92463 -0.4034,-4.36399 1.5212,-5.44846 l 52.6161,-29.64752 c 0.2358,-0.38055 0.5486,-0.73773 0.9458,-1.05586 5.8132,-4.65623 6.7512,-13.14343 2.0949,-18.95667 -1.3827,-1.72632 -3.1688,-3.08602 -5.2009,-3.95932 -3.318,-1.42596 -6.4824,-2.15098 -9.5097,-2.20105 -8.973,-0.14843 -23.4897,5.39687 -43.1579,16.7403 -0.19,0.1096 -0.3851,0.2018 -0.5835,0.27713 l -28.6441,19.32072 c -1.8315,1.23533 -4.3176,0.75208 -5.5529,-1.07938 -1.2354,-1.83146 -0.7521,-4.31759 1.0793,-5.55292 l 26.4994,-17.87406 z m -67.9292,135.14377 4.9401,-25.41507 c -1.0347,-12.80509 -2.3241,-23.40148 -3.8386,-31.7371 -18.9651,20.16919 -36.5512,37.64347 -47.5654,47.58519 -0.1198,0.59607 -0.237,1.1836 -0.3516,1.76269 17.3964,1.48247 33.0015,4.0839 46.8155,7.80429 z m 7.8122,-64.34057 c 1.851,8.29272 3.3678,19.0303 4.5844,32.27266 l 39.8838,-31.81044 c -4.5404,-15.21875 -8.0323,-28.08616 -10.4735,-38.67599 -10.8768,12.81261 -22.5719,25.8892 -33.9947,38.21377 z M 1358.2857,126.7271 c 25.5862,0.4466 28.0965,5.29049 47.9903,4.45541 34.2021,-1.43569 75.7389,-10.60319 75.8082,-14.57043 0.081,-4.64582 -37.1267,-1.93903 -81.4048,-2.56989 -15.5254,-0.22121 -41.1741,0.7707 -59.2387,2.57081 -69.5846,6.93401 -101.3322,-3.50787 -101.4417,2.76693 -0.082,4.68586 28.8978,20.15971 58.5278,17.00491 15.2134,-1.61981 42.1407,-9.96527 59.7589,-9.65774 z m -152.0231,53.10487 c -6.4557,-0.56001 -23.1245,-2.11612 -27.6852,0 -8.4032,3.89901 -2.1847,14.2033 -2.1847,23.38789 0,5.80078 10.8418,29.60273 26.759,52.99523 22.9632,33.74764 54.5808,69.19562 63.4058,69.96117 6.0578,0.5255 -2.7947,-7.58718 -13.1617,-35.51375 -4.4515,-11.99138 -4.3624,-31.0287 -11.4265,-49.01872 -2.3581,-6.00518 -5.4913,-17.08921 -9.3998,-33.25206 -1.4481,-9.58778 -3.4124,-15.9308 -5.8929,-19.02904 -4.66,-5.82056 -13.6117,-8.94063 -20.414,-9.53072 z m 311.9898,-2 c -12.2336,-1.06123 -22.1902,6.73473 -29.8698,23.38789 -1.9273,12.9114 -3.67,22.97247 -5.2282,30.1832 -2.5872,11.97303 -6.3626,23.66483 -9.7718,39.15427 -1.9762,8.97854 -5.203,26.00363 -9.6803,51.07526 -0.1942,1.08736 0.5298,2.12626 1.6172,2.32045 0.6518,0.1164 1.319,-0.0974 1.7819,-0.57087 17.9181,-18.33183 29.3486,-31.23995 34.2913,-38.72437 13.2499,-20.06324 17.4822,-41.91886 22.6016,-49.68319 11.3474,-17.21018 22.3883,-27.37393 22.3883,-31.26169 0,-12.94047 -9.7798,-24.2891 -28.1302,-25.88095 z m -77.6336,299.90552 c -28.8744,-28.54873 -53.0575,-24.86307 -69.1104,11.13401 -0.8997,2.01761 0.01,4.3826 2.0241,5.28235 2.0176,0.89975 4.3826,-0.006 5.2823,-2.02406 14.1099,-31.64009 32.4316,-33.70428 58.7281,-6.10831 l 18.4955,71.44884 h -39.8167 c -2.2091,0 -4,1.79086 -4,4 0,2.20914 1.7909,4 4,4 h 44.984 c 2.616,0 4.5279,-2.46985 3.8723,-5.00241 l -19.6008,-75.71877 c 19.0316,-28.14552 36.2397,-27.65719 55.3346,1.46499 1.2113,1.84743 3.6909,2.36309 5.5384,1.15177 1.8474,-1.21132 2.363,-3.69093 1.1517,-5.53836 -21.647,-33.01464 -45.0879,-34.378 -66.8831,-4.09005 z m -32.7041,27.21628 c 4.4182,0 8,-3.80558 8,-8.5 0,-4.69442 -3.5818,-8.5 -8,-8.5 -4.4183,0 -8,3.80558 -8,8.5 0,4.69442 3.5817,8.5 8,8.5 z m 66,0 c 4.4182,0 8,-3.80558 8,-8.5 0,-4.69442 -3.5818,-8.5 -8,-8.5 -4.4183,0 -8,3.80558 -8,8.5 0,4.69442 3.5817,8.5 8,8.5 z m -67.1335,86.72831 c 11.4013,11.2523 23.6092,16.74852 36.4839,16.23942 12.9067,-0.51036 24.1234,-6.75484 33.4552,-18.47633 1.376,-1.72831 1.0903,-4.24481 -0.638,-5.62077 -1.7283,-1.37596 -4.2448,-1.09032 -5.6207,0.63798 -7.9473,9.98237 -17.0533,15.05178 -27.5126,15.46537 -10.4915,0.41486 -20.6276,-4.14861 -30.5483,-13.93962 -1.5723,-1.55178 -4.1049,-1.53512 -5.6567,0.0372 -1.5518,1.57234 -1.5352,4.10494 0.037,5.65673 z m -513.46186,-191.94424 38.26287,-4.39361 -33.48065,130.8794 156.05294,26.06188 24.2328,-109.65707 22.1664,12.95603 -21.7178,126.11645 -141.24642,50.13821 -79.03808,-104.96101 z m 353.75326,78.59278 -83.0677,60.10287 c -0.6099,0.44126 -1.3023,0.68559 -2.0014,0.74515 -0.075,0.44159 -0.2239,0.87294 -0.447,1.27471 -3.8782,6.98347 -3.4285,14.50883 1.5751,23.09303 4.8432,8.30901 11.7604,13.04713 21.0459,14.41294 11.542,-10.04803 22.1647,-19.0898 31.8689,-27.12582 10.3383,-8.5611 22.7671,-17.15668 37.2889,-25.79519 0.3918,-0.23306 0.8072,-0.39147 1.2298,-0.47944 3.1322,-9.52183 4.2124,-17.52304 3.3078,-23.96916 -0.9682,-6.89861 -4.5397,-14.32743 -10.8003,-22.25909 z m -2.7409,-7.89124 -2.7757,-25.59772 c -0.2673,-2.46535 -1.1846,-4.81546 -2.6582,-6.80996 -4.5946,-6.21882 -13.3605,-7.53555 -19.5793,-2.94099 -5.4502,4.02664 -11.425,7.95119 -17.9244,11.77504 -13.1866,7.75819 -27.3753,19.28578 -42.5369,34.58732 -9.4621,9.54938 -11.9468,23.99451 -6.2194,36.15664 l 6.7347,14.30105 z m 9.5835,63.58688 c -12.6796,7.72171 -23.6024,15.38015 -32.7664,22.96884 -10.1408,8.39759 -21.2998,17.90771 -33.476,28.52976 -0,0.001 -0,0.003 -0,0.004 -3.4392,7.60025 -2.8315,15.25557 1.9063,23.38377 5.9595,10.22404 14.3004,11.61167 23.5395,7.68992 3.9978,-1.69698 20.1039,-14.9631 46.8912,-38.82417 2.1952,-9.39742 2.9252,-16.54479 2.2555,-21.31687 -0.6714,-4.78376 -3.4526,-12.32312 -8.3457,-22.43503 z m -35.9475,-85.80963 c -2.1995,0.20663 -4.15,-1.40887 -4.3566,-3.60833 -0.2067,-2.19945 1.4088,-4.14997 3.6083,-4.3566 9.5791,-0.89993 15.9603,4.47249 18.2202,14.86679 2.2793,10.48329 -1.2799,17.78604 -10.4059,20.01055 -2.1463,0.52318 -4.3103,-0.79262 -4.8335,-2.93892 -0.5231,-2.14629 0.7927,-4.31032 2.939,-4.8335 4.5055,-1.09827 5.9093,-3.97853 4.483,-10.53848 -1.4456,-6.64895 -4.356,-9.0993 -9.6545,-8.60151 z m 9.3997,55.50661 c -2.1994,0.20663 -4.15,-1.40887 -4.3566,-3.60833 -0.2066,-2.19945 1.4089,-4.14997 3.6083,-4.3566 9.5791,-0.89993 15.9603,4.47249 18.2202,14.86679 2.2793,10.48329 -1.2799,17.78604 -10.4058,20.01055 -2.1463,0.52318 -4.3104,-0.79262 -4.8335,-2.93892 -0.5232,-2.14629 0.7926,-4.31032 2.9389,-4.8335 4.5056,-1.09827 5.9093,-3.97853 4.4831,-10.53848 -1.4456,-6.64895 -4.3561,-9.09929 -9.6546,-8.60151 z m 10.2463,53.00798 c -2.1995,0.20664 -4.15,-1.40887 -4.3566,-3.60832 -0.2066,-2.19946 1.4089,-4.14997 3.6083,-4.35661 9.5791,-0.89992 15.9603,4.4725 18.2202,14.8668 2.2793,10.48328 -1.2799,17.78603 -10.4058,20.01055 -2.1463,0.52318 -4.3104,-0.79262 -4.8335,-2.93892 -0.5232,-2.14629 0.7926,-4.31033 2.9389,-4.8335 4.5055,-1.09827 5.9093,-3.97853 4.4831,-10.53849 -1.4457,-6.64894 -4.3561,-9.09929 -9.6546,-8.60151 z M 1029.1278,291.49464 c -3.4682,-2.78307 -7.3449,-4.77965 -11.6417,-6.01174 -8.2348,-2.36129 -16.6493,-1.52378 -25.39346,2.6014 5.22943,8.13202 11.92156,13.30128 20.15636,15.66257 2.7052,0.77572 5.4298,1.20621 8.1792,1.28834 -1.2222,-1.54947 -1.9284,-3.56813 -1.8522,-5.75221 0.1639,-4.69156 3.8762,-8.36982 8.2918,-8.21563 0.7893,0.0276 1.5477,0.17572 2.26,0.42727 z m 4.7734,4.62347 c 0.4698,1.13509 0.7114,2.39877 0.6651,3.72328 -0.035,1.00125 -0.2315,1.95634 -0.5621,2.83788 1.2066,-0.44753 2.4192,-0.95872 3.6382,-1.5338 -1.1732,-1.82431 -2.4199,-3.49951 -3.7412,-5.02736 z m 13.5565,-52.58053 c 18.4067,9.47406 30.8536,28.64676 30.8715,50.55582 l 0.074,89.89847 -8.0009,-1.11561 -0.073,-88.77632 c -0.01,-7.57923 -1.7432,-14.77741 -4.8485,-21.20422 l -12.5959,-10.94485 c 11.2119,18.12888 14.8373,41.37642 10.8957,69.53605 -0.2988,2.13486 -2.2356,3.64893 -4.3795,3.4236 l -26.2118,-2.75497 c -2.1971,-0.23092 -3.7909,-2.19917 -3.56,-4.3962 0.2309,-2.19704 2.1992,-3.7909 4.3962,-3.55998 l 22.3239,2.34634 c 3.9244,-33.72739 -3.9643,-58.90779 -23.6224,-76.00298 -11.4863,6.71212 -21.2992,12.40295 -29.4385,17.07249 -8.59458,4.93075 -21.64575,12.35003 -39.15349,22.25783 -0.0235,0.11425 -0.0466,0.22864 -0.0694,0.34318 l -0.0583,0.29307 c -0.50248,2.5258 -3.22608,3.92552 -5.5723,2.86374 -2.22186,-1.0055 -4.60368,-1.65404 -7.08542,-1.91488 -12.63296,-1.32778 -23.95038,7.83688 -25.27816,20.46984 -1.32777,12.63297 7.83689,23.95038 20.46985,25.27816 1.05561,0.11095 2.10863,0.1496 3.15451,0.11702 2.57228,-0.0802 4.54983,2.25446 4.04769,4.77853 l -4.7441,23.84677 -7.93662,-1.10664 3.93154,-19.76235 c -16.65861,-2.13326 -28.64366,-17.19852 -26.87904,-33.98771 1.78961,-17.02704 17.04352,-29.37941 34.07056,-27.5898 1.70866,0.17959 3.38512,0.49674 5.01714,0.94583 6.57637,-24.42228 26.79291,-42.28594 50.96211,-46.45542 -7.8315,-5.1272 -12.5545,-14.33977 -11.5275,-24.23431 0.003,-0.0256 0.005,-0.0512 0.008,-0.0768 1.03845,-9.70496 7.64831,-17.46384 16.30831,-20.43603 -5.3773,-4.58958 -8.4041,-11.69685 -7.4937,-19.20204 0,-0.0236 0.01,-0.0471 0.01,-0.0707 1.4063,-11.26669 11.6798,-19.26007 22.9465,-17.85373 l 15.6991,1.9596 c 9.3117,1.16231 16.8097,8.20021 18.5585,17.4198 1.7232,9.08452 -2.5107,17.91875 -9.9576,22.47372 5.595,3.62214 9.6998,9.38024 11.1378,16.21071 2.6667,12.6672 -4.5368,25.11763 -16.3955,29.35488 z m -37.4138,67.89938 c -11.52121,-3.30363 -20.57808,-11.0636 -27.05311,-23.05255 -1.03358,-1.91374 -0.34857,-4.30264 1.54208,-5.37787 11.84431,-6.73596 23.63713,-8.51738 35.15833,-5.21373 11.5211,3.30364 20.578,11.0636 27.053,23.05256 1.0336,1.91373 0.3486,4.30263 -1.542,5.37786 -11.8444,6.73596 -23.6372,8.51737 -35.1583,5.21373 z m 37.4487,34.33839 c -7.2571,2.63611 -15.3289,1.53043 -24.0234,-3.07171 -1.9525,-1.03348 -2.6975,-3.45408 -1.664,-5.40657 1.0334,-1.95249 3.454,-2.6975 5.4065,-1.66402 6.8383,3.61957 12.6242,4.41213 17.5496,2.62301 2.0764,-0.75424 4.3711,0.31758 5.1253,2.39398 0.7543,2.0764 -0.3176,4.37108 -2.394,5.12531 z"
       id="Black"
       inkscape:connector-curvature="0"
       style="fill:#212121"
       sodipodi:nodetypes="cccsscccsssscsscccscccssccssccscccccsssssscsssscsccscscssscscsscccscccccssccccccscccccscccccccsccssscsccccccsccccccccscccscscsccssscssscsccssscsccccccssccsccsssssscssssscsssccsccccccccccccccsscccscccscccccscccsscccccssccccccscssscssscsssssssccsscccscscscccsccsscccccsccscsccccccccccccccsscsscssssssssscssscsscccsssscsssccsssscccsccsssssssssssscccsscsccccccccccccccscscccccccsssscccsccsscccscssssssssssssssssssssscscscscsccscccccccsccscccssssccsccssssssscccsscccccccssscscssssscscsssssc" />
  </g>
</svg>
