{
  "kind": "collectionType",
  "collectionName": "reviews",
  "info": {
    "name": "reviews"
  },
  "options": {
    "increments": true,
    "timestamps": true
  },
  "attributes": {
    "name": {
      "type": "string"
    },
    "text": {
      "type": "string"
    },
    "course": {
      "via": "reviews",
      "model": "courses"
    },
    "student": {
      "via": "reviews",
      "model": "student"
    },
    "time": {
      "type": "datetime"
    }
  }
}
