{
  "kind": "collectionType",
  "collectionName": "invoices",
  "info": {
    "name": "Invoices"
  },
  "options": {
    "increments": true,
    "timestamps": true
  },
  "attributes": {
    "timeCreated": {
      "type": "datetime"
    },
    "timePaid": {
      "type": "datetime"
    },
    "hash": {
      "type": "string"
    },
    "txnId": {
      "type": "string"
    },
    "key": {
      "type": "string"
    },
    "amount": {
      "type": "integer"
    },
    "isPaid": {
      "type": "boolean"
    },
    "studentId": {
      "type": "string"
    },
    "udf": {
      "type": "string"
    },
    "firstName": {
      "type": "string"
    },
    "productInfo": {
      "type": "string"
    },
    "email": {
      "type": "email"
    },
    "payment": {
      "via": "invoice",
      "model": "payments"
    }
  }
}
